[
  {
    "id": "b0621711-8357-43da-bebc-e97105352c4f",
    "tarea": "jump",
    "terminada": true
  },
  {
    "id": "a5c947a6-7a55-4318-836d-b18a02151d0d",
    "tarea": "read",
    "terminada": false
  },
  {
    "id": "2573eb17-37c6-4772-9fc0-e10f395830a1",
    "tarea": "dance",
    "terminada": true
  },
  {
    "id": "e8b2b3e5-b830-46f4-9575-0d52c58a2122",
    "tarea": "swim",
    "terminada": false
  },
  {
    "id": "6c7e9eb4-fe8c-4ef4-8770-6b9fdb0f175d",
    "tarea": "jumping",
    "terminada": true
  },
  {
    "id": "7e7ca5c1-1279-4b46-a2c1-8fbfa14ae8ab",
    "tarea": "programming",
    "terminada": false
  }
]
